%time,field.header.stamp,field.string_data
1615822372926160547,1615560589569034020,2
1615822387108841323,1615560603752222209,1
1615822393848631185,1615560610483392522,2
1615822400765052718,1615560617402203151,1
1615822412096011090,1615560628733533953,2
1615822425099886629,1615560641740004940,1
1615822444372796661,1615560661013344511,2
1615822448312654969,1615560664952817266,1
1615822449806434597,1615560666445717465,2
1615822453990008221,1615560670634358535,1
1615822471612702243,1615560688254523558,2
1615822485909632420,1615560702545027407,1
1615822486853467750,1615560703495895039,2
1615822489375972680,1615560706017186787,1
1615822492660816000,1615560709303788731,2
1615822498556965793,1615560715200526149,1
1615822500707982786,1615560717342725489,2
1615822509472646796,1615560726115909162,1
1615822510176545950,1615560726817655527,2
1615822513825399152,1615560730470883398,1
