%time,field.header.stamp,field.string_data
1615823637034507256,1615658681372290602,2
1615823654762643054,1615658699093928617,1
1615823668219567858,1615658712551103960,2
1615823670772309118,1615658715100778767,1
1615823677330449908,1615658721666367890,2
1615823682527768295,1615658726855917660,1
1615823695517399889,1615658739854700965,2
1615823706539294710,1615658750871305685,1
1615823740643676132,1615658784976425484,2
1615823763651003773,1615658807986817574,1
1615823783306653395,1615658827639462019,2
1615823794980542433,1615658839305656117,1
1615823807786785416,1615658852120791489,2
1615823822371916797,1615658866705875860,1
